module gitlab.com/rikikudohust/token-holder

go 1.19

require (
	github.com/ethereum/go-ethereum v1.11.6
	github.com/kelseyhightower/envconfig v1.4.0
	github.com/mcuadros/go-defaults v1.2.0
	github.com/spf13/viper v1.15.0
	github.com/urfave/cli/v2 v2.17.2-0.20221006022127-8f469abc00aa
	gitlab.com/firebird-finance/backend/go-common v0.0.0-20220606105105-e7b473dffbe5
	gorm.io/driver/mysql v1.5.0
	gorm.io/driver/postgres v1.5.0
	gorm.io/gorm v1.25.0
)

require (
	cloud.google.com/go v0.105.0 // indirect
	cloud.google.com/go/compute v1.14.0 // indirect
	cloud.google.com/go/compute/metadata v0.2.3 // indirect
	cloud.google.com/go/logging v1.6.1 // indirect
	cloud.google.com/go/longrunning v0.3.0 // indirect
	github.com/StackExchange/wmi v0.0.0-20180116203802-5d049714c4a6 // indirect
	github.com/btcsuite/btcd/btcec/v2 v2.2.0 // indirect
	github.com/certifi/gocertifi v0.0.0-20210507211836-431795d63e8d // indirect
	github.com/cpuguy83/go-md2man/v2 v2.0.2 // indirect
	github.com/deckarep/golang-set/v2 v2.1.0 // indirect
	github.com/decred/dcrd/dcrec/secp256k1/v4 v4.0.1 // indirect
	github.com/fsnotify/fsnotify v1.6.0 // indirect
	github.com/getsentry/raven-go v0.2.0 // indirect
	github.com/gin-contrib/sse v0.1.0 // indirect
	github.com/gin-gonic/gin v1.7.7 // indirect
	github.com/go-ole/go-ole v1.2.1 // indirect
	github.com/go-playground/locales v0.13.0 // indirect
	github.com/go-playground/universal-translator v0.17.0 // indirect
	github.com/go-playground/validator/v10 v10.4.1 // indirect
	github.com/go-sql-driver/mysql v1.7.0 // indirect
	github.com/go-stack/stack v1.8.1 // indirect
	github.com/golang/groupcache v0.0.0-20210331224755-41bb18bfe9da // indirect
	github.com/golang/protobuf v1.5.3 // indirect
	github.com/google/go-cmp v0.5.9 // indirect
	github.com/google/uuid v1.3.0 // indirect
	github.com/googleapis/enterprise-certificate-proxy v0.2.1 // indirect
	github.com/googleapis/gax-go/v2 v2.7.0 // indirect
	github.com/gorilla/websocket v1.4.2 // indirect
	github.com/hashicorp/hcl v1.0.0 // indirect
	github.com/holiman/uint256 v1.2.2-0.20230321075855-87b91420868c // indirect
	github.com/jackc/pgpassfile v1.0.0 // indirect
	github.com/jackc/pgservicefile v0.0.0-20221227161230-091c0ba34f0a // indirect
	github.com/jackc/pgx/v5 v5.3.0 // indirect
	github.com/jinzhu/inflection v1.0.0 // indirect
	github.com/jinzhu/now v1.1.5 // indirect
	github.com/json-iterator/go v1.1.12 // indirect
	github.com/leodido/go-urn v1.2.0 // indirect
	github.com/magiconair/properties v1.8.7 // indirect
	github.com/mattn/go-colorable v0.1.13 // indirect
	github.com/mattn/go-isatty v0.0.16 // indirect
	github.com/mgutz/ansi v0.0.0-20200706080929-d51e80ef957d // indirect
	github.com/mitchellh/mapstructure v1.5.0 // indirect
	github.com/modern-go/concurrent v0.0.0-20180306012644-bacd9c7ef1dd // indirect
	github.com/modern-go/reflect2 v1.0.2 // indirect
	github.com/onsi/ginkgo v1.16.5 // indirect
	github.com/onsi/gomega v1.27.6 // indirect
	github.com/pelletier/go-toml/v2 v2.0.6 // indirect
	github.com/pkg/errors v0.9.1 // indirect
	github.com/russross/blackfriday/v2 v2.1.0 // indirect
	github.com/shirou/gopsutil v3.21.4-0.20210419000835-c7a38de76ee5+incompatible // indirect
	github.com/sirupsen/logrus v1.8.1 // indirect
	github.com/spf13/afero v1.9.3 // indirect
	github.com/spf13/cast v1.5.0 // indirect
	github.com/spf13/jwalterweatherman v1.1.0 // indirect
	github.com/spf13/pflag v1.0.5 // indirect
	github.com/subosito/gotenv v1.4.2 // indirect
	github.com/tklauser/go-sysconf v0.3.5 // indirect
	github.com/tklauser/numcpus v0.2.2 // indirect
	github.com/ugorji/go/codec v1.1.7 // indirect
	github.com/x-cray/logrus-prefixed-formatter v0.5.2 // indirect
	github.com/xrash/smetrics v0.0.0-20201216005158-039620a65673 // indirect
	go.opencensus.io v0.24.0 // indirect
	golang.org/x/crypto v0.6.0 // indirect
	golang.org/x/net v0.8.0 // indirect
	golang.org/x/oauth2 v0.0.0-20221014153046-6fdb5e3db783 // indirect
	golang.org/x/sync v0.1.0 // indirect
	golang.org/x/sys v0.6.0 // indirect
	golang.org/x/term v0.6.0 // indirect
	golang.org/x/text v0.8.0 // indirect
	google.golang.org/api v0.107.0 // indirect
	google.golang.org/appengine v1.6.7 // indirect
	google.golang.org/genproto v0.0.0-20221227171554-f9683d7f8bef // indirect
	google.golang.org/grpc v1.52.0 // indirect
	google.golang.org/protobuf v1.28.1 // indirect
	gopkg.in/ini.v1 v1.67.0 // indirect
	gopkg.in/natefinch/npipe.v2 v2.0.0-20160621034901-c1b8fa8bdcce // indirect
	gopkg.in/yaml.v2 v2.4.0 // indirect
	gopkg.in/yaml.v3 v3.0.1 // indirect
)
